{
    "fluentMethods": true,
    "clientRootFolder": "",
    "relationships": [],
    "fields": [
        {
            "fieldName": "name",
            "fieldType": "String"
        }
    ],
    "changelogDate": "20190428182601",
    "dto": "no",
    "searchEngine": false,
    "service": "no",
    "entityTableName": "skill",
    "databaseType": "sql",
    "jpaMetamodelFiltering": false,
    "pagination": "no"
}
